Data Analytics 101 -- Exploratory Data Analysis using R – exploringtibbles
…
The tibble ‘filtered_data’ contains only the rows where the miles per gallon (mpg) are greater than 20.

select():: Recall that this function is used to select specific columns. Suppose we want to select ‘mpg’ and ‘hp’ columns from mtcars dataset

selected_data <- tb %>% select(mpg, hp)
selected_data

# A tibble: 32 × 2
     mpg    hp
   <dbl> <dbl>
 1  21     110
 2  21     110
 3  22.8    93
 4  21.4   110
 5  18.7   175
 6  18.1   105
 7  14.3   245
 8  24.4    62
 9  22.8    95
10  19.2   123
# ℹ 22 more rows

The tibble ‘selected_data’ will only contain the ‘mpg’ (miles per gallon) and ‘hp’ (horsepower) columns from the mtcars dataset.

arrange(): Recall that this function is used to reorder rows in a data frame by one or more variables. By default, it arranges rows in ascending order. Suppose we want to select only the mpg and hp columns from the mtcars data and sort it in descending order of mpg

arranged_data <- tb %>% select(mpg, hp) %>% arrange(desc(mpg))
arranged_data

# A tibble: 32 × 2
     mpg    hp
   <dbl> <dbl>
 1  33.9    65
 2  32.4    66
 3  30.4    52
 4  30.4   113
 5  27.3    66
 6  26      91
 7  24.4    62
 8  22.8    93
 9  22.8    95
10  21.5    97
# ℹ 22 more rows

The steps in the code can be broken down as follows:

arranged_data <- tb %>% select(mpg, hp): The select function is used here to extract only the mpg and hp columns from the tb dataframe. The %>% operator is the pipe operator, which is used to chain multiple operations together in a readable manner. This part of the code will create a new dataframe containing only the mpg and hp columns.

arrange(desc(mpg)): The arrange function is then used to order the rows in the newly created dataframe in descending order (desc) based on the mpg column.

mutate(): Recall that this function is used to create new variables (columns) or modify existing ones. Suppose we want to create a new column named ‘efficiency’, defined as the ratio of mpg to hp in the mtcars dataset.

mutated_data <- tb %>% mutate(efficiency = mpg / hp)
mutated_data

# A tibble: 32 × 12
     mpg cyl    disp    hp  drat    wt  qsec vs    am    gear   carb efficiency
   <dbl> <fct> <dbl> <dbl> <dbl> <dbl> <dbl> <fct> <fct> <fct> <dbl>      <dbl>
 1  21   6      160    110  3.9   2.62  16.5 0     1     4         4     0.191 
 2  21   6      160    110  3.9   2.88  17.0 0     1     4         4     0.191 
 3  22.8 4      108     93  3.85  2.32  18.6 1     1     4         1     0.245 
 4  21.4 6      258    110  3.08  3.22  19.4 1     0     3         1     0.195 
 5  18.7 8      360    175  3.15  3.44  17.0 0     0     3         2     0.107 
 6  18.1 6      225    105  2.76  3.46  20.2 1     0     3         1     0.172 
 7  14.3 8      360    245  3.21  3.57  15.8 0     0     3         4     0.0584
 8  24.4 4      147.    62  3.69  3.19  20   1     0     4         2     0.394 
 9  22.8 4      141.    95  3.92  3.15  22.9 1     0     4         2     0.24  
10  19.2 6      168.   123  3.92  3.44  18.3 1     0     4         4     0.156 
# ℹ 22 more rows
…
The dataframe renamed_data now includes the MPG column, which was previously named mpg.

group_by(): This function is key for performing operations within distinct groups of our data. For example, let’s group the mtcars dataset by the cyl (number of cylinders) column.

grouped_data <- mtcars %>% group_by(cyl)
grouped_data

# A tibble: 32 × 11
# Groups:   cyl [3]
     mpg   cyl  disp    hp  drat    wt  qsec    vs    am  gear  carb
   <dbl> <dbl> <dbl> <dbl> <dbl> <dbl> <dbl> <dbl> <dbl> <dbl> <dbl>
 1  21       6  160    110  3.9   2.62  16.5     0     1     4     4
 2  21       6  160    110  3.9   2.88  17.0     0     1     4     4
 3  22.8     4  108     93  3.85  2.32  18.6     1     1     4     1
 4  21.4     6  258    110  3.08  3.22  19.4     1     0     3     1
 5  18.7     8  360    175  3.15  3.44  17.0     0     0     3     2
 6  18.1     6  225    105  2.76  3.46  20.2     1     0     3     1
 7  14.3     8  360    245  3.21  3.57  15.8     0     0     3     4
 8  24.4     4  147.    62  3.69  3.19  20       1     0     4     2
 9  22.8     4  141.    95  3.92  3.15  22.9     1     0     4     2
10  19.2     6  168.   123  3.92  3.44  18.3     1     0     4     4
# ℹ 22 more rows
…
